"Displaynaam","Omschrijving"
"Lionel Der Boven Testkanaal 1","Dit gaat allemaal over test onderwerp 1"
"Lionel Der Boven Testkanaal 2","Dit gaat allemaal over test onderwerp 2"
"Lionel Der Boven Testkanaal 3","Dit gaat allemaal over test onderwerp 3"